{"metadata":{"total_count":11,"total_pages":2,"current_page":0,"has_next":true,"has_previous":false},"status":true,"errors":[],"data":{"url":"/car/all/kermanshah?mileage=0","ads":[{"type":"ad","detail":{"type":"car","code":"o5j96las","rank":1,"badge":false,"pin":false,"url":"/car/detail-o5j96las-peugeot-206ir-type2-1401","title":"پژو، 206","subtitle":"1401 | تیپ 2","trim":"تیپ 2","time":"2 روز پیش","year":"1401","mileage":"صفر کیلومتر","location":"کرمانشاه","specialcase":null,"transmission":"دنده ای","fuel":"بنزینی","color":"سفید / داخل مشکی","body_color":"سفید","inside_color":"مشکی","body_status":"بدون رنگ","description":"بیمه تا فروردین ۱۴۰۴","authenticated":false,"body_type":"hatchback","body_type_fa":"هاچبک","cylinder_fa":"4 سیلندر","image_count":1,"image":"https://cdn.bama.ir/uploads/BamaImages/VehicleCarImages/5c857faf-1ad5-4814-b35a-6e0ceb4ffe88/CarImage_638549859957132301_thumb_450_300.jpg","modified_date":"2024-06-26T08:06:35.72"},"specs":{"volume":"1.4 لیتر","engine":"4 سیلندر TU3","acceleration":"14.1 ثانیه","fuel":"6.4 لیتر در صد کیلومتر","battery_capacity":null,"all_electric_range":null,"url_price":null,"url_review":"/car-reviews/peugeot/206ir-specs-1084-type2"},"dealer":null,"price":{"type":"negotiable","price":"0","prepayment":"0","payment":"0","prepayment_primary":"0","prepayment_secondary":"0","payment_primary":"0","month_number":0,"installments":0,"delivery_days":0},"images":[{"large":"https://cdn.bama.ir/uploads/BamaImages/VehicleCarImages/5c857faf-1ad5-4814-b35a-6e0ceb4ffe88/CarImage_638549859957132301_thumb_900_600.jpg","small":"https://cdn.bama.ir/uploads/BamaImages/VehicleCarImages/5c857faf-1ad5-4814-b35a-6e0ceb4ffe88/CarImage_638549859957132301_thumb_450_300.jpg","thumb":"https://cdn.bama.ir/uploads/BamaImages/VehicleCarImages/5c857faf-1ad5-4814-b35a-6e0ceb4ffe88/CarImage_638549859957132301_thumb_240_160.jpg","pinkie":"https://cdn.bama.ir/uploads/BamaImages/VehicleCarImages/5c857faf-1ad5-4814-b35a-6e0ceb4ffe88/CarImage_638549859957132301_thumb_120_100.jpg"}],"metadata":{"title_tag":"پژو 206 تیپ 2 فروشی - 1403/4/6","keywords":"باما, مرجع خرید, خرید خودرو, فروش خودرو, اقساطی, ماشین, اتومبیل, ايران, پژو, 206, تیپ 2, 1401,  bama, buy, sell, car, brand new, second hand, used","description":"خرید خودرو پژو 206 تیپ 2 تولید 1401 در شهر کرمانشاه، بیمه تا فروردین ۱۴۰۴","canonical":"https://bama.ir/car/detail-o5j96las-peugeot-206ir-type2-1401","noindex":true},"breadcrump":{"links":[{"title":"باما","url":"/"},{"title":"خودرو","url":"/car"},{"title":"پژو","url":"/car/peugeot"},{"title":"206","url":"/car/peugeot-206ir"},{"title":"تیپ 2","url":"/car/peugeot-206ir-type2"},{"title":"1401","url":"/car/peugeot-206ir-type2-y1401"},{"title":"جزییات","url":null}]},"banner":null,"promotion":null,"similarity":null,"authenticity":null},{"type":"ad","detail":{"type":"car","code":"7rmml1h0","rank":2,"badge":false,"pin":false,"url":"/car/detail-7rmml1h0-quick-gxr-lmt-1403","title":"کوییک، GXR","subtitle":"1403 | L دنده ای","trim":"L دنده ای","time":"4 روز پیش","year":"1403","mileage":"صفر کیلومتر","location":"کرمانشاه","specialcase":null,"transmission":"دنده ای","fuel":"بنزینی","color":"سفید / داخل مشکی","body_color":"سفید","inside_color":"مشکی","body_status":"بدون رنگ","description":"فرمان دی سنسور نور و باران ضد لغزش استاندارد 85 گانه\r\nکارت طلایی\r\nمعاوضه ندارم","authenticated":false,"body_type":"hatchback","body_type_fa":"هاچبک","cylinder_fa":"4 سیلندر","image_count":3,"image":"https://cdn.bama.ir/uploads/BamaImages/VehicleCarImages/afb9cce8-e642-4669-812a-455fd71ef86b/CarImage_638547634097093506_thumb_450_300.jpg","modified_date":"2024-06-23T18:16:49.71"},"specs":{"volume":null,"engine":null,"acceleration":null,"fuel":null,"battery_capacity":null,"all_electric_range":null,"url_price":"/price/quick_gxr_lmt","url_review":null},"dealer":null,"price":{"type":"lumpsum","price":"445,000,000","prepayment":"0","payment":"0","prepayment_primary":"0","prepayment_secondary":"0","payment_primary":"0","month_number":0,"installments":0,"delivery_days":0},"images":[{"large":"https://cdn.bama.ir/uploads/BamaImages/VehicleCarImages/afb9cce8-e642-4669-812a-455fd71ef86b/CarImage_638547634097093506_thumb_900_600.jpg","small":"https://cdn.bama.ir/uploads/BamaImages/VehicleCarImages/afb9cce8-e642-4669-812a-455fd71ef86b/CarImage_638547634097093506_thumb_450_300.jpg","thumb":"https://cdn.bama.ir/uploads/BamaImages/VehicleCarImages/afb9cce8-e642-4669-812a-455fd71ef86b/CarImage_638547634097093506_thumb_240_160.jpg","pinkie":"https://cdn.bama.ir/uploads/BamaImages/VehicleCarImages/afb9cce8-e642-4669-812a-455fd71ef86b/CarImage_638547634097093506_thumb_120_100.jpg"},{"large":"https://cdn.bama.ir/uploads/BamaImages/VehicleCarImages/afb9cce8-e642-4669-812a-455fd71ef86b/CarImage_638547634097093455_thumb_900_600.jpg","small":"https://cdn.bama.ir/uploads/BamaImages/VehicleCarImages/afb9cce8-e642-4669-812a-455fd71ef86b/CarImage_638547634097093455_thumb_450_300.jpg","thumb":"https://cdn.bama.ir/uploads/BamaImages/VehicleCarImages/afb9cce8-e642-4669-812a-455fd71ef86b/CarImage_638547634097093455_thumb_240_160.jpg","pinkie":"https://cdn.bama.ir/uploads/BamaImages/VehicleCarImages/afb9cce8-e642-4669-812a-455fd71ef86b/CarImage_638547634097093455_thumb_120_100.jpg"},{"large":"https://cdn.bama.ir/uploads/BamaImages/VehicleCarImages/afb9cce8-e642-4669-812a-455fd71ef86b/CarImage_638547634097093494_thumb_900_600.jpg","small":"https://cdn.bama.ir/uploads/BamaImages/VehicleCarImages/afb9cce8-e642-4669-812a-455fd71ef86b/CarImage_638547634097093494_thumb_450_300.jpg","thumb":"https://cdn.bama.ir/uploads/BamaImages/VehicleCarImages/afb9cce8-e642-4669-812a-455fd71ef86b/CarImage_638547634097093494_thumb_240_160.jpg","pinkie":"https://cdn.bama.ir/uploads/BamaImages/VehicleCarImages/afb9cce8-e642-4669-812a-455fd71ef86b/CarImage_638547634097093494_thumb_120_100.jpg"}],"metadata":{"title_tag":"کوییک GXR L دنده ای فروشی - 1403/4/3","keywords":"باما, مرجع خرید, خرید خودرو, فروش خودرو, اقساطی, ماشین, اتومبیل, ايران, کوییک, GXR, L دنده ای, 1403,  bama, buy, sell, car, brand new, second hand, used","description":"خرید خودرو کوییک GXR L دنده ای تولید 1403 در شهر کرمانشاه، فرمان دی سنسور نور و باران ضد لغزش استاندارد 85 گانه کارت طلایی معاوضه ندارم","canonical":"https://bama.ir/car/detail-7rmml1h0-quick-gxr-lmt-1403","noindex":true},"breadcrump":{"links":[{"title":"باما","url":"/"},{"title":"خودرو","url":"/car"},{"title":"کوییک","url":"/car/quick"},{"title":"GXR","url":"/car/quick-gxr"},{"title":"L دنده ای","url":"/car/quick-gxr-lmt"},{"title":"1403","url":"/car/quick-gxr-lmt-y1403"},{"title":"جزییات","url":null}]},"banner":null,"promotion":null,"similarity":null,"authenticity":null},{"type":"ad","detail":{"type":"car","code":"pyudfgxc","rank":3,"badge":false,"pin":false,"url":"/car/detail-pyudfgxc-tara-automatic-1402","title":"تارا، اتوماتیک V2","subtitle":"1402 ","trim":"اتوماتیک","time":"5 روز پیش","year":"1402","mileage":"صفر کیلومتر","location":"کرمانشاه","specialcase":null,"transmission":"اتوماتیک","fuel":"بنزینی","color":"خاکستری / داخل مشکی","body_color":"خاکستری","inside_color":"مشکی","body_status":"بدون رنگ","description":"دارای کارت طلایی\r\n","authenticated":false,"body_type":"passenger_car","body_type_fa":"سدان","cylinder_fa":"4 سیلندر","image_count":0,"image":null,"modified_date":"2024-06-23T00:21:17.59"},"specs":{"volume":"1.6 لیتر","engine":"4 سیلندر TU5 پلاس","acceleration":"13 ثانیه","fuel":"7.3 لیتر در صد کیلومتر","battery_capacity":null,"all_electric_range":null,"url_price":"/price/tara_automatic","url_review":"/car-reviews/tara/automatic-specs-1393"},"dealer":null,"price":{"type":"lumpsum","price":"900,000,000","prepayment":"0","payment":"0","prepayment_primary":"0","prepayment_secondary":"0","payment_primary":"0","month_number":0,"installments":0,"delivery_days":0},"images":null,"metadata":{"title_tag":"تارا اتوماتیک V2 فروشی - 1403/4/3","keywords":"باما, مرجع خرید, خرید خودرو, فروش خودرو, اقساطی, ماشین, اتومبیل, ايران, تارا, اتوماتیک V2, 1402,  bama, buy, sell, car, brand new, second hand, used","description":"خرید خودرو تارا اتوماتیک V2 تولید 1402 در شهر کرمانشاه، دارای کارت طلایی ","canonical":"https://bama.ir/car/detail-pyudfgxc-tara-automatic-1402","noindex":true},"breadcrump":{"links":[{"title":"باما","url":"/"},{"title":"خودرو","url":"/car"},{"title":"تارا","url":"/car/tara"},{"title":"اتوماتیک V2","url":"/car/tara-automatic"},{"title":"1402","url":"/car/tara-automatic-y1402"},{"title":"جزییات","url":null}]},"banner":null,"promotion":null,"similarity":null,"authenticity":null},{"type":"ad","detail":{"type":"car","code":"apxujltg","rank":4,"badge":false,"pin":false,"url":"/car/detail-apxujltg-changan-cs55plus-1.5liter-2023","title":"چانگان، CS 55 پلاس","subtitle":"2023 | 1.5 لیتر توربو","trim":"1.5 لیتر توربو","time":"5 روز پیش","year":"2023","mileage":"صفر کیلومتر","location":"کرمانشاه","specialcase":null,"transmission":"اتوماتیک","fuel":"بنزینی","color":"نوک مدادی / داخل مشکی","body_color":"نوک مدادی","inside_color":"مشکی","body_status":"بدون رنگ","description":" تحویلی ۲۵خرداد ۴۰۳  ","authenticated":true,"body_type":"suv","body_type_fa":"شاسی بلند‌","cylinder_fa":"4 سیلندر","image_count":0,"image":null,"modified_date":"2024-06-22T19:42:14.32"},"specs":{"volume":"1.5 لیتر","engine":"4 سیلندر توربوشارژ (JL473ZQ7)","acceleration":null,"fuel":"6.6 لیتر در صد کیلومتر","battery_capacity":null,"all_electric_range":null,"url_price":"/price/changan_cs55plus_1.5liter","url_review":"/car-reviews/changan/cs55plus-specs-1468-1.5liter"},"dealer":null,"price":{"type":"lumpsum","price":"2,670,000,000","prepayment":"0","payment":"0","prepayment_primary":"0","prepayment_secondary":"0","payment_primary":"0","month_number":0,"installments":0,"delivery_days":0},"images":null,"metadata":{"title_tag":"چانگان CS 55 پلاس 1.5 لیتر توربو فروشی - 1403/4/2","keywords":"باما, مرجع خرید, خرید خودرو, فروش خودرو, اقساطی, ماشین, اتومبیل, ايران, چانگان, CS 55 پلاس, 1.5 لیتر توربو, 2023,  bama, buy, sell, car, brand new, second hand, used","description":"خرید خودرو چانگان CS 55 پلاس 1.5 لیتر توربو تولید 2023 در شهر کرمانشاه،  تحویلی ۲۵خرداد ۴۰۳  ","canonical":"https://bama.ir/car/detail-apxujltg-changan-cs55plus-1.5liter-2023","noindex":true},"breadcrump":{"links":[{"title":"باما","url":"/"},{"title":"خودرو","url":"/car"},{"title":"چانگان","url":"/car/changan"},{"title":"CS 55 پلاس","url":"/car/changan-cs55plus"},{"title":"1.5 لیتر توربو","url":"/car/changan-cs55plus-1.5liter"},{"title":"2023","url":"/car/changan-cs55plus-1.5liter-y2023"},{"title":"جزییات","url":null}]},"banner":null,"promotion":null,"similarity":null,"authenticity":null},{"type":"ad","detail":{"type":"car","code":"ppfq89r1","rank":5,"badge":false,"pin":false,"url":"/car/detail-ppfq89r1-peugeot-207-automaticpanoramatu5p-1403","title":"پژو، 207","subtitle":"1403 | پانوراما اتوماتیک TU5P","trim":"پانوراما اتوماتیک TU5P","time":"6 روز پیش","year":"1403","mileage":"صفر کیلومتر","location":"اسلام غرب","specialcase":null,"transmission":"اتوماتیک","fuel":"بنزینی","color":"سفید / داخل مشکی","body_color":"سفید","inside_color":"مشکی","body_status":"بدون رنگ","description":null,"authenticated":false,"body_type":"hatchback","body_type_fa":"هاچبک","cylinder_fa":"4 سیلندر","image_count":0,"image":null,"modified_date":"2024-06-22T10:53:59.8"},"specs":{"volume":null,"engine":null,"acceleration":null,"fuel":null,"battery_capacity":null,"all_electric_range":null,"url_price":"/price/peugeot_207_automaticpanoramatu5p","url_review":null},"dealer":null,"price":{"type":"lumpsum","price":"1,050,000,000","prepayment":"0","payment":"0","prepayment_primary":"0","prepayment_secondary":"0","payment_primary":"0","month_number":0,"installments":0,"delivery_days":0},"images":null,"metadata":{"title_tag":"پژو 207 پانوراما اتوماتیک TU5P فروشی - 1403/4/2","keywords":"باما, مرجع خرید, خرید خودرو, فروش خودرو, اقساطی, ماشین, اتومبیل, ايران, پژو, 207, پانوراما اتوماتیک TU5P, 1403,  bama, buy, sell, car, brand new, second hand, used","description":"خرید خودرو پژو 207 پانوراما اتوماتیک TU5P تولید 1403 در شهر اسلام غرب، ","canonical":"https://bama.ir/car/detail-ppfq89r1-peugeot-207-automaticpanoramatu5p-1403","noindex":true},"breadcrump":{"links":[{"title":"باما","url":"/"},{"title":"خودرو","url":"/car"},{"title":"پژو","url":"/car/peugeot"},{"title":"207","url":"/car/peugeot-207"},{"title":"پانوراما اتوماتیک TU5P","url":"/car/peugeot-207-automaticpanoramatu5p"},{"title":"1403","url":"/car/peugeot-207-automaticpanoramatu5p-y1403"},{"title":"جزییات","url":null}]},"banner":null,"promotion":null,"similarity":null,"authenticity":null},{"type":"ad","detail":{"type":"car","code":"jn08yc3b","rank":6,"badge":false,"pin":false,"url":"/car/detail-jn08yc3b-kmc-j7-1403","title":"کی ام سی، J7","subtitle":"1403 ","trim":"اتوماتیک","time":"6 روز پیش","year":"1403","mileage":"صفر کیلومتر","location":"کرمانشاه","specialcase":null,"transmission":"اتوماتیک","fuel":"بنزینی","color":"مشکی / داخل مشکی","body_color":"مشکی","inside_color":"مشکی","body_status":"بدون رنگ","description":"تحویلی خرداد ماه \r\nفرمان جدید با گرمکن صندلی شاگرد","authenticated":false,"body_type":"passenger_car","body_type_fa":"سدان","cylinder_fa":"4 سیلندر","image_count":1,"image":"https://cdn.bama.ir/uploads/BamaImages/VehicleCarImages/85473680-08b1-474c-bd61-2b36a6dde286/CarImage_638546400301162128_thumb_450_300.jpg","modified_date":"2024-06-22T08:00:30.12"},"specs":{"volume":"1.5 لیتر","engine":"4 سیلندر توربوشارژ TGDi","acceleration":null,"fuel":null,"battery_capacity":null,"all_electric_range":null,"url_price":"/price/kmc_j7","url_review":"/car-reviews/kmc/j7-specs-1419"},"dealer":null,"price":{"type":"lumpsum","price":"1,750,000,000","prepayment":"0","payment":"0","prepayment_primary":"0","prepayment_secondary":"0","payment_primary":"0","month_number":0,"installments":0,"delivery_days":0},"images":[{"large":"https://cdn.bama.ir/uploads/BamaImages/VehicleCarImages/85473680-08b1-474c-bd61-2b36a6dde286/CarImage_638546400301162128_thumb_900_600.jpg","small":"https://cdn.bama.ir/uploads/BamaImages/VehicleCarImages/85473680-08b1-474c-bd61-2b36a6dde286/CarImage_638546400301162128_thumb_450_300.jpg","thumb":"https://cdn.bama.ir/uploads/BamaImages/VehicleCarImages/85473680-08b1-474c-bd61-2b36a6dde286/CarImage_638546400301162128_thumb_240_160.jpg","pinkie":"https://cdn.bama.ir/uploads/BamaImages/VehicleCarImages/85473680-08b1-474c-bd61-2b36a6dde286/CarImage_638546400301162128_thumb_120_100.jpg"}],"metadata":{"title_tag":"کی ام سی J7 فروشی - 1403/4/2","keywords":"باما, مرجع خرید, خرید خودرو, فروش خودرو, اقساطی, ماشین, اتومبیل, ايران, کی ام سی, J7, 1403,  bama, buy, sell, car, brand new, second hand, used","description":"خرید خودرو کی ام سی J7 تولید 1403 در شهر کرمانشاه، تحویلی خرداد ماه  فرمان جدید با گرمکن صندلی شاگرد","canonical":"https://bama.ir/car/detail-jn08yc3b-kmc-j7-1403","noindex":true},"breadcrump":{"links":[{"title":"باما","url":"/"},{"title":"خودرو","url":"/car"},{"title":"کی ام سی","url":"/car/kmc"},{"title":"J7","url":"/car/kmc-j7"},{"title":"1403","url":"/car/kmc-j7-y1403"},{"title":"جزییات","url":null}]},"banner":null,"promotion":null,"similarity":null,"authenticity":null},{"type":"ad","detail":{"type":"car","code":"3nz5uxwd","rank":7,"badge":false,"pin":false,"url":"/car/detail-3nz5uxwd-shahin-gl-1403","title":"شاهین، GL دنده ای","subtitle":"1403 ","trim":"دنده ای","time":"1403/3/31","year":"1403","mileage":"صفر کیلومتر","location":"کرمانشاه","specialcase":null,"transmission":"دنده ای","fuel":"بنزینی","color":"سفید / داخل مشکی","body_color":"سفید","inside_color":"مشکی","body_status":"بدون رنگ","description":null,"authenticated":false,"body_type":"passenger_car","body_type_fa":"سدان","cylinder_fa":"4 سیلندر","image_count":0,"image":null,"modified_date":"2024-06-20T13:33:05.84"},"specs":{"volume":"1.5 لیتر","engine":"4 سیلندر توربوشارژ (M15T)","acceleration":"13.2 ثانیه","fuel":"7.2 لیتر در صد کیلومتر","battery_capacity":null,"all_electric_range":null,"url_price":"/price/shahin_gl","url_review":"/car-reviews/shahin/gl-specs-1454"},"dealer":null,"price":{"type":"lumpsum","price":"690,000,000","prepayment":"0","payment":"0","prepayment_primary":"0","prepayment_secondary":"0","payment_primary":"0","month_number":0,"installments":0,"delivery_days":0},"images":null,"metadata":{"title_tag":"شاهین GL دنده ای فروشی - 1403/3/31","keywords":"باما, مرجع خرید, خرید خودرو, فروش خودرو, اقساطی, ماشین, اتومبیل, ايران, شاهین, GL دنده ای, 1403,  bama, buy, sell, car, brand new, second hand, used","description":"خرید خودرو شاهین GL دنده ای تولید 1403 در شهر کرمانشاه، ","canonical":"https://bama.ir/car/detail-3nz5uxwd-shahin-gl-1403","noindex":true},"breadcrump":{"links":[{"title":"باما","url":"/"},{"title":"خودرو","url":"/car"},{"title":"شاهین","url":"/car/shahin"},{"title":"GL دنده ای","url":"/car/shahin-gl"},{"title":"1403","url":"/car/shahin-gl-y1403"},{"title":"جزییات","url":null}]},"banner":null,"promotion":null,"similarity":null,"authenticity":null},{"type":"ad","detail":{"type":"car","code":"hczl0i6p","rank":8,"badge":false,"pin":false,"url":"/car/detail-hczl0i6p-zotye-dl5-1.5literturbo-2023","title":"زوتی، DL5","subtitle":"2023 | 1.5 لیتر توربو","trim":"1.5 لیتر توربو","time":"1403/3/30","year":"2023","mileage":"صفر کیلومتر","location":"کرمانشاه","specialcase":null,"transmission":"اتوماتیک","fuel":"بنزینی","color":"سفید / داخل شتری","body_color":"سفید","inside_color":"شتری","body_status":"بدون رنگ","description":"تحویل روز\r\nوارداتی (مونتاژ نیست)","authenticated":true,"body_type":"suv","body_type_fa":"شاسی بلند‌","cylinder_fa":"4 سیلندر","image_count":3,"image":"https://cdn.bama.ir/uploads/BamaImages/VehicleCarImages/2faa2725-4dc6-47d3-a1ec-d96466f2633a/CarImage_638544209951719232_thumb_450_300.jpeg","modified_date":"2024-06-19T19:09:55.18"},"specs":{"volume":"1.5 لیتر","engine":"4 سیلندر توربوشارژ (4G15T)","acceleration":null,"fuel":null,"battery_capacity":null,"all_electric_range":null,"url_price":"/price/zotye_dl5_1.5literturbo","url_review":"/car-reviews/zotye/dl5-specs-1443-1.5literturbo"},"dealer":null,"price":{"type":"lumpsum","price":"1,290,000,000","prepayment":"0","payment":"0","prepayment_primary":"0","prepayment_secondary":"0","payment_primary":"0","month_number":0,"installments":0,"delivery_days":0},"images":[{"large":"https://cdn.bama.ir/uploads/BamaImages/VehicleCarImages/2faa2725-4dc6-47d3-a1ec-d96466f2633a/CarImage_638544209951719232_thumb_900_600.jpeg","small":"https://cdn.bama.ir/uploads/BamaImages/VehicleCarImages/2faa2725-4dc6-47d3-a1ec-d96466f2633a/CarImage_638544209951719232_thumb_450_300.jpeg","thumb":"https://cdn.bama.ir/uploads/BamaImages/VehicleCarImages/2faa2725-4dc6-47d3-a1ec-d96466f2633a/CarImage_638544209951719232_thumb_240_160.jpeg","pinkie":"https://cdn.bama.ir/uploads/BamaImages/VehicleCarImages/2faa2725-4dc6-47d3-a1ec-d96466f2633a/CarImage_638544209951719232_thumb_120_100.jpeg"},{"large":"https://cdn.bama.ir/uploads/BamaImages/VehicleCarImages/2faa2725-4dc6-47d3-a1ec-d96466f2633a/CarImage_638544209951719332_thumb_900_600.jpeg","small":"https://cdn.bama.ir/uploads/BamaImages/VehicleCarImages/2faa2725-4dc6-47d3-a1ec-d96466f2633a/CarImage_638544209951719332_thumb_450_300.jpeg","thumb":"https://cdn.bama.ir/uploads/BamaImages/VehicleCarImages/2faa2725-4dc6-47d3-a1ec-d96466f2633a/CarImage_638544209951719332_thumb_240_160.jpeg","pinkie":"https://cdn.bama.ir/uploads/BamaImages/VehicleCarImages/2faa2725-4dc6-47d3-a1ec-d96466f2633a/CarImage_638544209951719332_thumb_120_100.jpeg"},{"large":"https://cdn.bama.ir/uploads/BamaImages/VehicleCarImages/2faa2725-4dc6-47d3-a1ec-d96466f2633a/CarImage_638544209951719357_thumb_900_600.jpeg","small":"https://cdn.bama.ir/uploads/BamaImages/VehicleCarImages/2faa2725-4dc6-47d3-a1ec-d96466f2633a/CarImage_638544209951719357_thumb_450_300.jpeg","thumb":"https://cdn.bama.ir/uploads/BamaImages/VehicleCarImages/2faa2725-4dc6-47d3-a1ec-d96466f2633a/CarImage_638544209951719357_thumb_240_160.jpeg","pinkie":"https://cdn.bama.ir/uploads/BamaImages/VehicleCarImages/2faa2725-4dc6-47d3-a1ec-d96466f2633a/CarImage_638544209951719357_thumb_120_100.jpeg"}],"metadata":{"title_tag":"زوتی DL5 1.5 لیتر توربو فروشی - 1403/3/30","keywords":"باما, مرجع خرید, خرید خودرو, فروش خودرو, اقساطی, ماشین, اتومبیل, ايران, زوتی, DL5, 1.5 لیتر توربو, 2023,  bama, buy, sell, car, brand new, second hand, used","description":"خرید خودرو زوتی DL5 1.5 لیتر توربو تولید 2023 در شهر کرمانشاه، تحویل روز وارداتی (مونتاژ نیست)","canonical":"https://bama.ir/car/detail-hczl0i6p-zotye-dl5-1.5literturbo-2023","noindex":true},"breadcrump":{"links":[{"title":"باما","url":"/"},{"title":"خودرو","url":"/car"},{"title":"زوتی","url":"/car/zotye"},{"title":"DL5","url":"/car/zotye-dl5"},{"title":"1.5 لیتر توربو","url":"/car/zotye-dl5-1.5literturbo"},{"title":"2023","url":"/car/zotye-dl5-1.5literturbo-y2023"},{"title":"جزییات","url":null}]},"banner":null,"promotion":null,"similarity":null,"authenticity":null},{"type":"ad","detail":{"type":"car","code":"6d0e2sbp","rank":9,"badge":false,"pin":false,"url":"/car/detail-6d0e2sbp-fidelity-prestige-7seater-1403","title":"فیدلیتی، پرستیژ","subtitle":"1403 | هفت نفره","trim":"هفت نفره","time":"1403/3/29","year":"1403","mileage":"صفر کیلومتر","location":"کرمانشاه","specialcase":null,"transmission":"اتوماتیک","fuel":"بنزینی","color":"سفید / داخل مارون","body_color":"سفید","inside_color":"مارون","body_status":"بدون رنگ","description":null,"authenticated":false,"body_type":"suv","body_type_fa":"شاسی بلند‌","cylinder_fa":"4 سیلندر","image_count":0,"image":null,"modified_date":"2024-06-18T17:15:13.45"},"specs":{"volume":"1.6 لیتر","engine":"4 سیلندر توربوشارژ (4J16)","acceleration":"10.1 ثانیه","fuel":"8.2 لیتر در صد کیلومتر","battery_capacity":null,"all_electric_range":null,"url_price":"/price/fidelity_prestige_7seater","url_review":"/car-reviews/fidelity/prestige-specs-1090-7seater"},"dealer":null,"price":{"type":"lumpsum","price":"2,650,000,000","prepayment":"0","payment":"0","prepayment_primary":"0","prepayment_secondary":"0","payment_primary":"0","month_number":0,"installments":0,"delivery_days":0},"images":null,"metadata":{"title_tag":"فیدلیتی پرستیژ هفت نفره فروشی - 1403/3/29","keywords":"باما, مرجع خرید, خرید خودرو, فروش خودرو, اقساطی, ماشین, اتومبیل, ايران, فیدلیتی, پرستیژ, هفت نفره, 1403,  bama, buy, sell, car, brand new, second hand, used","description":"خرید خودرو فیدلیتی پرستیژ هفت نفره تولید 1403 در شهر کرمانشاه، ","canonical":"https://bama.ir/car/detail-6d0e2sbp-fidelity-prestige-7seater-1403","noindex":true},"breadcrump":{"links":[{"title":"باما","url":"/"},{"title":"خودرو","url":"/car"},{"title":"فیدلیتی","url":"/car/fidelity"},{"title":"پرستیژ","url":"/car/fidelity-prestige"},{"title":"هفت نفره","url":"/car/fidelity-prestige-7seater"},{"title":"1403","url":"/car/fidelity-prestige-7seater-y1403"},{"title":"جزییات","url":null}]},"banner":null,"promotion":null,"similarity":null,"authenticity":null},{"type":"ad","detail":{"type":"car","code":"dmcyb8lx","rank":10,"badge":false,"pin":false,"url":"/car/detail-dmcyb8lx-dongfeng-shinemax-1.5literturbo-2023","title":"دانگ فنگ، شاین مکس","subtitle":"2023 | 1.5 لیتر توربو","trim":"1.5 لیتر توربو","time":"1403/3/28","year":"2023","mileage":"صفر کیلومتر","location":"کرمانشاه","specialcase":null,"transmission":"اتوماتیک","fuel":"بنزینی","color":"مشکی / داخل طوسی","body_color":"مشکی","inside_color":"طوسی","body_status":"بدون رنگ","description":" چین،ساخت مشترک با هوندا ژاپن ، با امکانات فوق العاده با ۵ سال پشتیبانی تعمیرات و‌قطعات ایرانخودرو، \r\nمتریال و قطعات استفاده شده قابل قیاس با ماشین های ایرانی و‌ مونتاژ چینی نیست،\r\nسیستم برقی کلا متعلق به بوش هست","authenticated":true,"body_type":"passenger_car","body_type_fa":"سدان","cylinder_fa":"4 سیلندر","image_count":1,"image":"https://cdn.bama.ir/uploads/BamaImages/VehicleCarImages/89b04e78-3b27-4c29-a5b5-6c912054dba2/CarImage_638542513505777882_thumb_450_300.jpeg","modified_date":"2024-06-17T20:02:30.58"},"specs":{"volume":"1.5 لیتر","engine":"4 سیلندر توربوشارژ (C15TP1)","acceleration":"9.5 ثانیه","fuel":"6.8 لیتر در صد کیلومتر","battery_capacity":null,"all_electric_range":null,"url_price":"/price/dongfeng_shinemax_1.5literturbo","url_review":"/car-reviews/dongfeng/shinemax-specs-1457-1.5literturbo"},"dealer":null,"price":{"type":"lumpsum","price":"2,100,000,000","prepayment":"0","payment":"0","prepayment_primary":"0","prepayment_secondary":"0","payment_primary":"0","month_number":0,"installments":0,"delivery_days":0},"images":[{"large":"https://cdn.bama.ir/uploads/BamaImages/VehicleCarImages/89b04e78-3b27-4c29-a5b5-6c912054dba2/CarImage_638542513505777882_thumb_900_600.jpeg","small":"https://cdn.bama.ir/uploads/BamaImages/VehicleCarImages/89b04e78-3b27-4c29-a5b5-6c912054dba2/CarImage_638542513505777882_thumb_450_300.jpeg","thumb":"https://cdn.bama.ir/uploads/BamaImages/VehicleCarImages/89b04e78-3b27-4c29-a5b5-6c912054dba2/CarImage_638542513505777882_thumb_240_160.jpeg","pinkie":"https://cdn.bama.ir/uploads/BamaImages/VehicleCarImages/89b04e78-3b27-4c29-a5b5-6c912054dba2/CarImage_638542513505777882_thumb_120_100.jpeg"}],"metadata":{"title_tag":"دانگ فنگ شاین مکس 1.5 لیتر توربو فروشی - 1403/3/28","keywords":"باما, مرجع خرید, خرید خودرو, فروش خودرو, اقساطی, ماشین, اتومبیل, ايران, دانگ فنگ, شاین مکس, 1.5 لیتر توربو, 2023,  bama, buy, sell, car, brand new, second hand, used","description":"خرید خودرو دانگ فنگ شاین مکس 1.5 لیتر توربو تولید 2023 در شهر کرمانشاه،  چین،ساخت مشترک با هوندا ژاپن ، با امکانات فوق العاده با ۵ سال پشتیبانی تعمیرات و‌قطعات ایرانخودرو،  متریال و قطعات استفاده شده قابل قیاس با ماشین های ایرانی و‌ مونتاژ چینی نیست، سیستم برقی کلا متعلق به بوش هست","canonical":"https://bama.ir/car/detail-dmcyb8lx-dongfeng-shinemax-1.5literturbo-2023","noindex":true},"breadcrump":{"links":[{"title":"باما","url":"/"},{"title":"خودرو","url":"/car"},{"title":"دانگ فنگ","url":"/car/dongfeng"},{"title":"شاین مکس","url":"/car/dongfeng-shinemax"},{"title":"1.5 لیتر توربو","url":"/car/dongfeng-shinemax-1.5literturbo"},{"title":"2023","url":"/car/dongfeng-shinemax-1.5literturbo-y2023"},{"title":"جزییات","url":null}]},"banner":null,"promotion":null,"similarity":null,"authenticity":null}],"banner":null,"prices":null,"metadata":{"title":"خرید و فروش خودرو","title_sec":" صفر کیلومتر در استان کرمانشاه","title_tag":"خرید و فروش و قیمت خودرو صفر کیلومتر در استان کرمانشاه","keywords":"باما, مرجع خرید, خرید خودرو, فروش خودرو, اقساطی, ماشین, اتومبیل, ايران, , bama, buy, sell, car, brand new, second hand, used, ","description":"به روزترین آگهی های خرید و فروش و قیمت در استان کرمانشاه | قیمت خرید، صفر، کارکرده، دست دوم، نقد و اقساطی، در استان کرمانشاه","canonical":"https://bama.ir/car/all/kermanshah?mileage=0","noindex":false},"breadcrump":{"links":[{"title":"باما","url":"/"},{"title":"خودرو","url":"/car"},{"title":"کرمانشاه","url":"/car/all/kermanshah"},{"title":"صفر","url":null}]},"pillar_content":null}}